[
  {
    "functionalArea": "adcp documentation",
    "team": "Library",
    "IssueTypeRelation": "Item Checkout",
    "text": "how to checkout items",
    "url": "https://www.google.com"
  },
  {
    "functionalArea": "adcp documentation",
    "team": "Library",
    "IssueTypeRelation": "Item Checkout",
    "text": "How to request a card",
    "url": "https://www.google.com"
  },
  {
    "functionalArea": "adcp documentation",
    "team": "Library",
    "IssueTypeRelation": "Item Checkout",
    "text": "Fines for Late Returns",
    "url": "https://www.google.com"
  },
  {
    "functionalArea": "adcp documentation",
    "team": "ADCP Docs",
    "IssueTypeRelation": "Request technical writer",
    "text": "",
    "url": "https://www.google.com"
  },
  {
    "functionalArea": "adcp documentation",
    "team": "ADCP Docs",
    "IssueTypeRelation": "Reviewer Feedback",
    "text": "How to review",
    "url": "https://www.google.com"
  },
  {
    "functionalArea": "Cyber Security Group",
    "team": "Cyber Security",
    "IssueTypeRelation": "Customer Support",
    "text": "how to submit",
    "url": "https://www.google.com"
  },
  {
    "functionalArea": "adcp blah",
    "team": "Library",
    "IssueTypeRelation": "Item Checkout",
    "text": "how to checkout items",
    "url": "https://www.google.com"
  },
  {
    "functionalArea": "adcp blah",
    "team": "Library",
    "IssueTypeRelation": "Item Checkout",
    "text": "How to request a card",
    "url": "httpz://www.google.com"
  },
  {
    "functionalArea": "adcp blah",
    "team": "Library",
    "IssueTypeRelation": "Item Checkout",
    "text": "How to request a card",
    "url": "http://www.google.com"
  },
  {
    "functionalArea": "adcp blah",
    "team": "Library",
    "IssueTypeRelation": "Item Checkout",
    "text": "How to request a card",
    "url": "https://www.google.com"
  }
]